%YAML 1.1
%TAG !u! tag:unity3d.com,2011:
--- !u!687078895 &4343727234628468602
SpriteAtlas:
  m_ObjectHideFlags: 0
  m_CorrespondingSourceObject: {fileID: 0}
  m_PrefabInstance: {fileID: 0}
  m_PrefabAsset: {fileID: 0}
  m_Name: Main
  m_EditorData:
    serializedVersion: 2
    textureSettings:
      serializedVersion: 2
      anisoLevel: 1
      compressionQuality: 50
      maxTextureSize: 2048
      textureCompression: 0
      filterMode: 1
      generateMipMaps: 0
      readable: 0
      crunchedCompression: 0
      sRGB: 1
    platformSettings:
    - serializedVersion: 3
      m_BuildTarget: Android
      m_MaxTextureSize: 4096
      m_ResizeAlgorithm: 0
      m_TextureFormat: 47
      m_TextureCompression: 1
      m_CompressionQuality: 50
      m_CrunchedCompression: 0
      m_AllowsAlphaSplitting: 0
      m_Overridden: 1
      m_AndroidETC2FallbackOverride: 0
      m_ForceMaximumCompressionQuality_BC6H_BC7: 0
    - serializedVersion: 3
      m_BuildTarget: DefaultTexturePlatform
      m_MaxTextureSize: 4096
      m_ResizeAlgorithm: 0
      m_TextureFormat: -1
      m_TextureCompression: 1
      m_CompressionQuality: 50
      m_CrunchedCompression: 0
      m_AllowsAlphaSplitting: 0
      m_Overridden: 0
      m_AndroidETC2FallbackOverride: 0
      m_ForceMaximumCompressionQuality_BC6H_BC7: 0
    packingSettings:
      serializedVersion: 2
      padding: 4
      blockOffset: 1
      allowAlphaSplitting: 0
      enableRotation: 0
      enableTightPacking: 0
    secondaryTextureSettings: {}
    variantMultiplier: 1
    packables:
    - {fileID: 102900000, guid: 58ef85d99a72bad46a5bdfd4f41ed0f7, type: 3}
    - {fileID: 102900000, guid: 153a9fc3381a8ce4aa880239837d3a93, type: 3}
    - {fileID: 102900000, guid: f324cc3f6d1d4b34b99d41909129ad4c, type: 3}
    - {fileID: 102900000, guid: 86473acdeb267d5468a4df0c45bebe20, type: 3}
    - {fileID: 102900000, guid: 7f4547757d6da0a499f907ddffd3782d, type: 3}
    - {fileID: 102900000, guid: d46826b77ffeaba4fb21a49b3b7ce218, type: 3}
    - {fileID: 102900000, guid: dd8f46d38a10bf240b512dc405217d3a, type: 3}
    - {fileID: 102900000, guid: e077e71d55ccdfd42a1238deee9627d9, type: 3}
    - {fileID: 102900000, guid: a7f989ed551718e49a7d030b936bacb7, type: 3}
    - {fileID: 102900000, guid: c65684055164e534383b6bb467aeaf71, type: 3}
    - {fileID: 102900000, guid: 87645de3684fd384fbdde330d99f939b, type: 3}
    - {fileID: 102900000, guid: f36e7679ac746a746a11b94cfe5cd632, type: 3}
    - {fileID: 102900000, guid: dd730760098b4ff43a947a4122e8c4b1, type: 3}
    - {fileID: 102900000, guid: 2ad8b60c3dec82944b9f4633cedcaa21, type: 3}
    - {fileID: 102900000, guid: 141d8c52af9a5054fbee71d06dda6baf, type: 3}
    - {fileID: 102900000, guid: c0c0e01328935e74a85a4949000febe0, type: 3}
    - {fileID: 102900000, guid: b91da8278f4774c4bb6662f71e8ee28f, type: 3}
    - {fileID: 102900000, guid: 6f07be1b218b0374fa584fee9c79efaf, type: 3}
    - {fileID: 102900000, guid: e221207b29525a145843c86bff4ede20, type: 3}
    - {fileID: 102900000, guid: c90fe4988ea6a8440af5680b8573567b, type: 3}
    totalSpriteSurfaceArea: 14503240
    bindAsDefault: 1
    isAtlasV2: 0
    cachedData: {fileID: 0}
  m_MasterAtlas: {fileID: 0}
  m_PackedSprites:
  - {fileID: 21300000, guid: 745816000cb95ef40b8cb2c0117022a6, type: 3}
  - {fileID: 21300000, guid: ffba2600b41d1f349942ab37207427c7, type: 3}
  - {fileID: 6865869620139034199, guid: ec0ffe0080684a44ca346d7c0173097a, type: 3}
  - {fileID: 21300000, guid: f699312011f4a214b87dfd5058eaca08, type: 3}
  - {fileID: 21300000, guid: 11b84230d60db7c41ad1f13a3dd1308b, type: 3}
  - {fileID: 21300000, guid: c853f1409bfbba84fa196e8ae460e461, type: 3}
  - {fileID: 6258525618622737547, guid: 043b8440ab2c6c848bbac2f598596731, type: 3}
  - {fileID: 21300000, guid: 15888a40111c0e043b53c2aaad484cb6, type: 3}
  - {fileID: 21300000, guid: f38849702b7f99e45bc8cad92b88ab8c, type: 3}
  - {fileID: 21300000, guid: ebd267802b797f14594dbd66ea7c0706, type: 3}
  - {fileID: 21300000, guid: 0b9813a0e799d9d48b77f33e1350c6ac, type: 3}
  - {fileID: 21300000, guid: 6f97e0b063247cc4a9e29f1fcff648b1, type: 3}
  - {fileID: 21300000, guid: 9a05dcb05c58ae943a5a81bf5bff33ed, type: 3}
  - {fileID: 21300000, guid: 5169e0c0999c62e41a329e6a9757e58d, type: 3}
  - {fileID: -9189512678226010603, guid: 5a8d36c0d3b29dc41a41a4ac863afc7a, type: 3}
  - {fileID: 21300000, guid: 18347bd0c4eb7174b9069214ab56aba9, type: 3}
  - {fileID: 21300000, guid: d00ea2e0cdeb7af4ebd24d03a0044a40, type: 3}
  - {fileID: 21300000, guid: a9acf3e02ac5dce4d97e8f35c69861d6, type: 3}
  - {fileID: 21300000, guid: 2a82d7e0d6a6ab04d96c7aa161689452, type: 3}
  - {fileID: 21300000, guid: 25ce2711c5d491744b4439852cd31ced, type: 3}
  - {fileID: -3872237139533601314, guid: d348c42123a7b394c8444b8c56199cea, type: 3}
  - {fileID: 21300000, guid: 0a33554136b0a0e4183619cd8e952a00, type: 3}
  - {fileID: 21300000, guid: f80afd41cf8135a41a6930275232e669, type: 3}
  - {fileID: 21300000, guid: 0d513f4174141dc4291312a3d3ceaed3, type: 3}
  - {fileID: 21300000, guid: d997ea519352f884aa0589d6c3696911, type: 3}
  - {fileID: 21300000, guid: b53da06155f0d8e47bb732ca846dc54f, type: 3}
  - {fileID: 5369851433488361870, guid: dfa2407131df82a4287971a67ce15879, type: 3}
  - {fileID: 21300000, guid: ecaaaf810571a084b84061e935335aaa, type: 3}
  - {fileID: 21300000, guid: 29dd35a11e3b9c4419ecfea4b0cc20ad, type: 3}
  - {fileID: 21300000, guid: fb8285a14ea5e58498183cb97ec0378b, type: 3}
  - {fileID: 21300000, guid: 90643aa1c8f60bb4ba9a62425079397c, type: 3}
  - {fileID: 21300000, guid: 5f6cdea11eb6c6f43a6650614ac88653, type: 3}
  - {fileID: 21300000, guid: 668283b185c4a274dacdf84b375d6643, type: 3}
  - {fileID: 21300000, guid: e40341c19303c6b4187c0fffb91d0164, type: 3}
  - {fileID: 21300000, guid: 7580b6d1d712b2643b6a1b45545745b9, type: 3}
  - {fileID: 21300000, guid: 34dcfdd10d21de448af573dd0dbfad0e, type: 3}
  - {fileID: 21300000, guid: 94c528f11f3751842a6133fc93324f9f, type: 3}
  - {fileID: 21300000, guid: ffae1df1a2d820742ba9265376e602df, type: 3}
  - {fileID: 21300000, guid: c2736ff15d2762241b6559f25e8f8983, type: 3}
  - {fileID: 21300000, guid: 53f1b60240cd4ba49858c7325ec93795, type: 3}
  - {fileID: 21300000, guid: e8adb6027693ae84fa21285354fc176e, type: 3}
  - {fileID: -7014378893322493303, guid: 7ee94032920e02642b784cef6281a3cd, type: 3}
  - {fileID: 21300000, guid: a95fb532f2886e641b6dbe9d79178e61, type: 3}
  - {fileID: 21300000, guid: b0486c32e40863442ba9d6914ee13e51, type: 3}
  - {fileID: 21300000, guid: 1315414259e1cb440aef779c1cdbf418, type: 3}
  - {fileID: 21300000, guid: d4c98152bb9b859469076b5fbd057673, type: 3}
  - {fileID: 21300000, guid: cdfbd472c9d704147b445b5b39818497, type: 3}
  - {fileID: 21300000, guid: f866738274eae244aba57addaae62493, type: 3}
  - {fileID: 21300000, guid: 6e557492811f61c47ab4ac1c69520287, type: 3}
  - {fileID: 21300000, guid: d4c916a23c25cf340a6a424f2dc095cd, type: 3}
  - {fileID: 21300000, guid: a2137fa2138792c499ab3d3fc25b236c, type: 3}
  - {fileID: 21300000, guid: 09fc32b2a924a0f419f7c6f7c2d54866, type: 3}
  - {fileID: 21300000, guid: f84af3b204fd59a44a4c68636fec178a, type: 3}
  - {fileID: 21300000, guid: fb15cad24a8c8b445a4accca04800150, type: 3}
  - {fileID: 21300000, guid: 2cfbf4e27928f074c81ac8b54dd0ad60, type: 3}
  - {fileID: 21300000, guid: cd1dc0f214b5b81419b6f50bc419d312, type: 3}
  - {fileID: 21300000, guid: 142dfaf256dc0804c981a1f748b2f86b, type: 3}
  - {fileID: 21300000, guid: e778bc133892a0f4e9f3fdbdcffa94ce, type: 3}
  - {fileID: 21300000, guid: 22159e2391c641548a179b444f483a0d, type: 3}
  - {fileID: 21300000, guid: e8e1733362690e54a81cecd38fb658a5, type: 3}
  - {fileID: 21300000, guid: 52c23243944d2e949957e3bb782bb523, type: 3}
  - {fileID: 21300000, guid: d788ca432d1274d4790595461ba00ac0, type: 3}
  - {fileID: 21300000, guid: fa75f953a3931c543b9742166692a3d6, type: 3}
  - {fileID: 21300000, guid: aca88163d507054409dcd71d86749d35, type: 3}
  - {fileID: 21300000, guid: 630aef93f6ce8e343bd17a9ddaf12ec8, type: 3}
  - {fileID: 21300000, guid: 85cd1cb309e872f4ebd11e38364a19a7, type: 3}
  - {fileID: 21300000, guid: 603d02c3863daf9429412d40242ffb86, type: 3}
  - {fileID: 21300000, guid: 2dd623c36dd2e7a4f9b0c4961bf7fd7d, type: 3}
  - {fileID: 21300000, guid: 9ee222e398d9d0142a57dfbe1bb71d67, type: 3}
  - {fileID: 21300000, guid: 3c869be374cbd86448ef3525024582a6, type: 3}
  - {fileID: 8705147841380431943, guid: 54577cf37fc6b21489ef13b8f866685a, type: 3}
  - {fileID: 21300000, guid: 602753040fd9fb047b02d1d806a7de9c, type: 3}
  - {fileID: 21300000, guid: 4b0828047bdd85a49977b22de72e9295, type: 3}
  - {fileID: 21300000, guid: b5baea1494a856648bc75ddc3273f2a7, type: 3}
  - {fileID: 21300000, guid: 5872c424579767b4a8045068a450396d, type: 3}
  - {fileID: 21300000, guid: da48c534299d9e344be0aa1fe2d038a5, type: 3}
  - {fileID: -6473190791765123611, guid: d3a026345cffd8b43bb60d0bfcb299a0, type: 3}
  - {fileID: 21300000, guid: 7bef55448840fc64295201f8c74560ec, type: 3}
  - {fileID: 21300000, guid: 8b7eeb6475db63748ab562401830aabf, type: 3}
  - {fileID: 21300000, guid: 12adcd647fe84ed4cbbf9e70fff216ad, type: 3}
  - {fileID: 21300000, guid: 8eb31674cd0784d4ab89a014b095eecb, type: 3}
  - {fileID: 21300000, guid: 9265897472ad28b4e8f9891a71dbc3ef, type: 3}
  - {fileID: 21300000, guid: c6cc638436a165d4b84c7cfa2038ea56, type: 3}
  - {fileID: 21300000, guid: 956d15943811ac94b901e3fc3338c422, type: 3}
  - {fileID: 21300000, guid: 20b6d79482dbbce47ad62183b6f147da, type: 3}
  - {fileID: 21300000, guid: cb12d8a43c7b3c843843f2f2a5c290aa, type: 3}
  - {fileID: 1702370533394004587, guid: 6d6415b41802616458445e932859704f, type: 3}
  - {fileID: 21300000, guid: 4751d7b405027d141a4eef2a82021b89, type: 3}
  - {fileID: 21300000, guid: d5566cb48abf05d459e28f2ecc60a23c, type: 3}
  - {fileID: 21300000, guid: d94576c4aba6df840a08d97474d5e2ea, type: 3}
  - {fileID: -7326646057704235723, guid: abadd6c44125eeb47a721636d1beca55, type: 3}
  - {fileID: 21300000, guid: 429a7de41e2027944acd25e37030f602, type: 3}
  - {fileID: 21300000, guid: 58ac9ff49a5c3914b9190fd1e9c0f3c3, type: 3}
  - {fileID: 21300000, guid: d3057105c0350bc428f40b8228e90f33, type: 3}
  - {fileID: 21300000, guid: 40f4b0150d37fe44eae2a5a034a44246, type: 3}
  - {fileID: 21300000, guid: bc240a15c33c08641b63810067f7c11f, type: 3}
  - {fileID: 21300000, guid: b588f125e39599845842b6d17f2b2f21, type: 3}
  - {fileID: -3882764374906139267, guid: f8226b253be39fa40a53c3cbdfd68a5d, type: 3}
  - {fileID: 21300000, guid: 04ba1835f08143c498864817eb9143ee, type: 3}
  - {fileID: 21300000, guid: cdea4c35f41455641a9c851c6721f55a, type: 3}
  - {fileID: 21300000, guid: 0c52d54519196b249b5aa2291d4c76b3, type: 3}
  - {fileID: 21300000, guid: b6823755dd60e1d48b3a3924cd988c96, type: 3}
  - {fileID: 21300000, guid: eee6da5555ed3b74d93c2b9461fe3973, type: 3}
  - {fileID: 21300000, guid: faa42b65c6edbaf4886283690a15c374, type: 3}
  - {fileID: 21300000, guid: e12e0775e3444d849a059461f34dacaf, type: 3}
  - {fileID: 21300000, guid: 1d1a0685f3689de46b0f2f7d0e379594, type: 3}
  - {fileID: 21300000, guid: 0eaa7a85f441a0b458dc4a8dd9fabb38, type: 3}
  - {fileID: 4873574510799835557, guid: 5376779580407874392b3335c5bee886, type: 3}
  - {fileID: 21300000, guid: 2acf1895c25ea3e4ca7afbf595088efb, type: 3}
  - {fileID: -6728742498786813264, guid: cc2453a5fc52a034ea334387ece5948b, type: 3}
  - {fileID: 21300000, guid: 871657b5885feb644b74cc05c4b991ac, type: 3}
  - {fileID: 21300000, guid: 895da1c5aba792a45941ffd44a60e0c2, type: 3}
  - {fileID: 21300000, guid: 54f44fc59ed10594e974f9c974cee7c9, type: 3}
  - {fileID: 21300000, guid: ec84a216c7b4b7c41b9f8965b560dbaf, type: 3}
  - {fileID: 21300000, guid: 00e2e326e0aa7b2499bb3c496d6a6fc1, type: 3}
  - {fileID: 21300000, guid: 3b4caf260983b9944a15ca834bbd8922, type: 3}
  - {fileID: 21300000, guid: fa024936ccabb92429b478fabdc8dd99, type: 3}
  - {fileID: 21300000, guid: be82024647b997940ae321938c514d7f, type: 3}
  - {fileID: 21300000, guid: c1acb25629020f4408db360f76dc81a1, type: 3}
  - {fileID: 21300000, guid: 93e0b066053ae9e459301b8adbf0c0e1, type: 3}
  - {fileID: 21300000, guid: cd813676241ec8a43a98f24a149492b9, type: 3}
  - {fileID: 21300000, guid: f72e77765c0544e4781ab64e68f3b6f7, type: 3}
  - {fileID: 21300000, guid: a9ebcc767d3a6ed4883728921a55bfab, type: 3}
  - {fileID: 21300000, guid: dfc70f8695281544593de50db3a4dd82, type: 3}
  - {fileID: 21300000, guid: 4e01aa9683cfe96458443cebd76207cf, type: 3}
  - {fileID: 21300000, guid: 49c2d4c6c287ed448970f61f5f22f1a8, type: 3}
  - {fileID: 21300000, guid: 102e96d60f997dc419671cfe44cec8ed, type: 3}
  - {fileID: 3375564906941982859, guid: 22a278d6c9f09a44ca61312230d2fa1c, type: 3}
  - {fileID: 21300000, guid: d8620ce6e62ee0f499a36d96dae234d8, type: 3}
  - {fileID: 21300000, guid: da61f5f68c9654c4f83d83fb3f6b4f17, type: 3}
  - {fileID: -7214410933648080039, guid: 040468f671a237d4a8d7df8937a88efc, type: 3}
  - {fileID: 21300000, guid: 6d27b207c888e2645b96f640344cd1b1, type: 3}
  - {fileID: 21300000, guid: 2841b807c4d07b9459a733567089d543, type: 3}
  - {fileID: 21300000, guid: fda1b027ffb127241be188ac03f9b3dc, type: 3}
  - {fileID: 21300000, guid: d475c127adc3d794e9ffd529a72083e5, type: 3}
  - {fileID: 21300000, guid: c3471727d5407cf4bad0abdce000d8d8, type: 3}
  - {fileID: 21300000, guid: ea0bfa27955022c4a8908acc97bebcb8, type: 3}
  - {fileID: 21300000, guid: e55f5b2787b9cde40824ecf944272de9, type: 3}
  - {fileID: 21300000, guid: 8a80ac27f5cd5c44aa294af1743da74a, type: 3}
  - {fileID: 21300000, guid: d1f85537e44618e4b9e7f3f059ed4529, type: 3}
  - {fileID: -4297462810260060464, guid: 87326057a22d67e4fa18aecd0a1b0e73, type: 3}
  - {fileID: -3403899394982924272, guid: 046fbc576d90ec04f9d516a25cfad5b5, type: 3}
  - {fileID: 21300000, guid: 7ed13867c70e7694e927faf325513139, type: 3}
  - {fileID: 21300000, guid: b132ec67e58c8164693f842675edb7c6, type: 3}
  - {fileID: 2766727540151854818, guid: 1e385477c2ed81b4c98a3a2c902594f3, type: 3}
  - {fileID: 21300000, guid: ebda18774fe6c8142ba5617c1224f584, type: 3}
  - {fileID: 21300000, guid: 1c221a775e3a4fd4dad4ad920a83856e, type: 3}
  - {fileID: 21300000, guid: 0bb2f187f8c5d194aabc7a67a0cacc42, type: 3}
  - {fileID: 21300000, guid: 69d4a1a7cc2d1594e96846d16a692465, type: 3}
  - {fileID: 21300000, guid: 70239fa7358183b42a2ba8f2fc85c88a, type: 3}
  - {fileID: 21300000, guid: 67f4e6c79189d5a41922e08cf3bd0bb7, type: 3}
  - {fileID: 21300000, guid: 079818d7a086ea74c84c01f0db6d0a85, type: 3}
  - {fileID: 1160876565264369414, guid: 1739c8d7924e3724c8662782e411cda6, type: 3}
  - {fileID: 21300000, guid: 1af323e7018981743b56d9d11dded230, type: 3}
  - {fileID: 21300000, guid: d6c839f7927b19c4c825f507f54f6e5b, type: 3}
  - {fileID: 21300000, guid: 3bbe5ff73a6937a47a7c61855b23df18, type: 3}
  - {fileID: 21300000, guid: ebc3dff7423147d4ba67ae2e03e06636, type: 3}
  - {fileID: 21300000, guid: 9f58441876455a842b305b730a5eb57b, type: 3}
  - {fileID: 21300000, guid: df70a438565f3f64eb13b1170c99a701, type: 3}
  - {fileID: 21300000, guid: 3c8c9548b776c9c4a866dcfb4349e324, type: 3}
  - {fileID: 21300000, guid: bc2a6c489b819b742bb23f69da2366ed, type: 3}
  - {fileID: 21300000, guid: 2dc12058c1fe3894391b9ad3f0fbc61a, type: 3}
  - {fileID: 21300000, guid: af69d9585be0bd3408f4a01077325e3c, type: 3}
  - {fileID: 21300000, guid: 47868c68ed246654dae735d3427e32cf, type: 3}
  - {fileID: 21300000, guid: ea7f757827003fb42b0767c012fbaa27, type: 3}
  - {fileID: 21300000, guid: 914a30982784a734f8168a52f5539e0a, type: 3}
  - {fileID: -2869522328333783660, guid: 33b8b098ceb313b48ae73691902da54a, type: 3}
  - {fileID: 21300000, guid: 0a8f94a87fd7d9f4d99616b4a66da128, type: 3}
  - {fileID: 21300000, guid: e5666aa8b3d479644992c708a7948d97, type: 3}
  - {fileID: -483380551842240961, guid: 8444b3e87941d964794ead0c4deabb13, type: 3}
  - {fileID: 21300000, guid: d8698ae81875ba54f9f31af86805c9af, type: 3}
  - {fileID: 21300000, guid: cee9b209de648f14d881064a4a1d1e7d, type: 3}
  - {fileID: 21300000, guid: caca531915fab744c905d510324f7966, type: 3}
  - {fileID: 21300000, guid: 1e320e1942e302642aabfb2652efc72e, type: 3}
  - {fileID: 21300000, guid: 4852e22990119a04e9a043b29298e961, type: 3}
  - {fileID: 21300000, guid: b09a7d2980071b74aaee092a8dcf52dd, type: 3}
  - {fileID: 21300000, guid: e64db1593524aa44faa37f7425dc254f, type: 3}
  - {fileID: 21300000, guid: 927f935943951c84d8c2be37f5b73793, type: 3}
  - {fileID: 21300000, guid: 9019b359187631547858fdda2893eb5d, type: 3}
  - {fileID: 21300000, guid: 3e1c45591da909941b8277188b9ff159, type: 3}
  - {fileID: 21300000, guid: 54c8d859aae7ab747a6ecb1fc4d32f09, type: 3}
  - {fileID: 21300000, guid: 527cb9690bb89894bab370ad86946ffe, type: 3}
  - {fileID: 21300000, guid: a23f5c6951604f742a588a5e43c58206, type: 3}
  - {fileID: 21300000, guid: 6fd1a5796e21da94b994814e7928278d, type: 3}
  - {fileID: 21300000, guid: 58035b89ac39cc347a766b0681a889ab, type: 3}
  - {fileID: 21300000, guid: 86f65b89e4606ad4fa62beddbd6f2bd3, type: 3}
  - {fileID: 21300000, guid: b8d33e89984bbcb498a7ef0c36533078, type: 3}
  - {fileID: 21300000, guid: e13ff199e88306540a542e9b5271207b, type: 3}
  - {fileID: 21300000, guid: 7b848899c39649f41b263cb3f33700cb, type: 3}
  - {fileID: -6221373540395843516, guid: 343d2a99c5512ab47ba924e3f0a5173b, type: 3}
  - {fileID: 21300000, guid: b8c892b97ccad264e9e990802646b595, type: 3}
  - {fileID: 21300000, guid: af9405b90359ec0448adc5d1ecda7c50, type: 3}
  - {fileID: 21300000, guid: 81023cc92ef33b7439624b88f99740ea, type: 3}
  - {fileID: 21300000, guid: a73f3ed9bb8d9fe4eab7879b0ab05396, type: 3}
  - {fileID: 21300000, guid: 51450fe9affdb0f4e8ce7ade883e649d, type: 3}
  - {fileID: 21300000, guid: 800e49f9ee231e04f8111adb36eb94bb, type: 3}
  - {fileID: 21300000, guid: 00752e0a0389b96478a0f2830af4206e, type: 3}
  - {fileID: 21300000, guid: d6819e0afc39e6142855ce958b6565ec, type: 3}
  - {fileID: 21300000, guid: e93ffa1a3fb157a4a9bf8c9199127e73, type: 3}
  - {fileID: 21300000, guid: f3a2a52af9b5ed24fa5803045d35f38b, type: 3}
  - {fileID: 21300000, guid: d08b433ab9980cc45a668d1a9fba5997, type: 3}
  - {fileID: 21300000, guid: d180df3aa98cf6141b0a8ca93645a019, type: 3}
  - {fileID: 21300000, guid: 2e2a604a7bf36db4db05ae89b77e470a, type: 3}
  - {fileID: 21300000, guid: aea3ec4a9e5ecdb46829bacbb6403e52, type: 3}
  - {fileID: 21300000, guid: af3ebf4a07d103544961dc026fe6281a, type: 3}
  - {fileID: 21300000, guid: a41e966af63b2f640b988adb4e878591, type: 3}
  - {fileID: 21300000, guid: 67bafd6a72b51c04fac3a65eb37b8338, type: 3}
  - {fileID: 21300000, guid: 40dd137a71bf69d44acf210d070d815d, type: 3}
  - {fileID: 21300000, guid: 0c35f97adff2b2a45acefcd604419205, type: 3}
  - {fileID: 21300000, guid: ad2dfb8a5024c0b49b29f7843df64c0a, type: 3}
  - {fileID: 21300000, guid: b93a3e8a7c476154898548b83dd3aa97, type: 3}
  - {fileID: 21300000, guid: 6108069aa91e5a4429062eb0a37a9f00, type: 3}
  - {fileID: 21300000, guid: dec5699a5d0c234449f05878f36681c4, type: 3}
  - {fileID: 21300000, guid: 9b5debaaf813e4043ad146c540d11446, type: 3}
  - {fileID: 21300000, guid: 908044ca55c89c3419b1433a5f057edd, type: 3}
  - {fileID: 21300000, guid: 328d2aca0a5d3e9498170497fa9e2304, type: 3}
  - {fileID: 5598067368111899476, guid: 2b77acca507a5a343a17c47db9f7e9dd, type: 3}
  - {fileID: 21300000, guid: aac89eca337f8534d947b227c0f0e8cf, type: 3}
  - {fileID: 21300000, guid: 067d28da50be56a44bb7ddacf4c903b5, type: 3}
  - {fileID: 21300000, guid: 46a40aea0c9db61488ec6a89356c45aa, type: 3}
  - {fileID: 21300000, guid: f7b927fa48ab3a64db743fd3cc6c746a, type: 3}
  - {fileID: 21300000, guid: d4cfddfa00869c94c934c8811d131d69, type: 3}
  - {fileID: 21300000, guid: c68bd60b2fd8de54fb09c3765dfa542f, type: 3}
  - {fileID: 21300000, guid: 1b7f661b5ee7e5c459ab21a2962e55f3, type: 3}
  - {fileID: 21300000, guid: 5ed74a1b13603c74faa80fc7764ce406, type: 3}
  - {fileID: -5068673056850243737, guid: 28f45d1bd4c04bf4e920a5cb1981f729, type: 3}
  - {fileID: 21300000, guid: 4caa513b521e84b40ae1fd339cb8bf86, type: 3}
  - {fileID: 21300000, guid: d85bd73be76f0a04b9fa77972ef3f65c, type: 3}
  - {fileID: 21300000, guid: 8a83e24bdf61f0e429dd37b1cd1ff1ce, type: 3}
  - {fileID: 21300000, guid: 630b154bc4045d14ca69a6f3ee8b0519, type: 3}
  - {fileID: 21300000, guid: 69190b4bf05037345b8eb75758842bbb, type: 3}
  - {fileID: 21300000, guid: b4c56b5b7ff7cf2479c5123f709a2c85, type: 3}
  - {fileID: 21300000, guid: bd70b66b489843d45aa949ab25a57b01, type: 3}
  - {fileID: 4288201320449746203, guid: d90ae87bde1c43b43849d086aa6391ab, type: 3}
  - {fileID: 21300000, guid: 8f3d0d7be62100744a68569da4d7d862, type: 3}
  - {fileID: 21300000, guid: 5a133c8b0727135458601759440ca8a8, type: 3}
  - {fileID: 21300000, guid: 4e7656bb361cc5b44b777cd3eac98c3d, type: 3}
  - {fileID: 21300000, guid: 9a905cbba1d543349a7e9a6161c4d956, type: 3}
  - {fileID: 4372212083108812826, guid: f025dcdbe1e939c4ea7b81098fe426a5, type: 3}
  - {fileID: 21300000, guid: f0859aeb0eff5354ab54a192c05da47e, type: 3}
  - {fileID: 21300000, guid: 9733d5fb74bf218408ec80bf38d47141, type: 3}
  - {fileID: -7023083831242602406, guid: 8f72fffb60783c94c90d7b0911d88772, type: 3}
  - {fileID: 21300000, guid: 07f1fa0ca6e9e0944bc4f7e599522458, type: 3}
  - {fileID: 21300000, guid: 2eff551c166344f46b7fda1353c37a51, type: 3}
  - {fileID: 21300000, guid: 33fb732c9e901f543bd09d9e42d665a2, type: 3}
  - {fileID: 21300000, guid: 6dab572ce86cbbf488a22e5c94bf41d2, type: 3}
  - {fileID: 21300000, guid: 054d153c40721ff4b88a31b5cb02070e, type: 3}
  - {fileID: 21300000, guid: 86f8984ca132dfd4487324f751316c39, type: 3}
  - {fileID: 21300000, guid: b2cbe86c8c2a82545947ad9235ae0d88, type: 3}
  - {fileID: 21300000, guid: 802e6d6c0f73d2947977fbe3b7325fba, type: 3}
  - {fileID: 21300000, guid: d5eec07cadfe0344c893a51f17cf98e9, type: 3}
  - {fileID: 21300000, guid: e908b17c8411e9f46bd4a19e14767acc, type: 3}
  - {fileID: 21300000, guid: 8eb5667c9b3efbc428d2604f5905f414, type: 3}
  - {fileID: 21300000, guid: 3ef91c7c2330e394dbd07f74ce0b002a, type: 3}
  - {fileID: 21300000, guid: ae4a368cceb4102449281fe27fcba147, type: 3}
  - {fileID: 21300000, guid: a733fe8c635e7214c91f07507b9ca968, type: 3}
  - {fileID: 21300000, guid: 980e08ac1b0cc1d4bbeef557202e8a67, type: 3}
  - {fileID: 21300000, guid: 702942bcccd61a24b833a4eef9c178bd, type: 3}
  - {fileID: 21300000, guid: 676f23bc4d77b49428d1e99898e17962, type: 3}
  - {fileID: 21300000, guid: 13c71fbc5330ca74f823b9510a84be4d, type: 3}
  - {fileID: 21300000, guid: 3fb03fbc5b2796f4abba215325a8e98f, type: 3}
  - {fileID: 21300000, guid: 2a967adcfe44a6348a81a4ff07babe6d, type: 3}
  - {fileID: 21300000, guid: 80cd34fcd149f8a43b335d421be84a35, type: 3}
  - {fileID: 21300000, guid: 932479fc114df2b438be4ee4c34d2853, type: 3}
  - {fileID: 21300000, guid: 0ee8ccfc881732e4393bcc37808e50e9, type: 3}
  - {fileID: 21300000, guid: d963cffcf754c794a9c1d14baf8eb5b3, type: 3}
  - {fileID: 21300000, guid: 6571f90defa73c944a2c11021c2637c1, type: 3}
  - {fileID: 21300000, guid: 99166b0de0be9b149b67da4fd1908b83, type: 3}
  - {fileID: 21300000, guid: fc15f41d662632645b1ea7702477b425, type: 3}
  - {fileID: 21300000, guid: b273423d9875a874e809d3866413bc51, type: 3}
  - {fileID: 21300000, guid: 5654823d6c622334ca7b9a86aaceda76, type: 3}
  - {fileID: 21300000, guid: 757ce73d33f893642a2ab8ba265581e0, type: 3}
  - {fileID: 21300000, guid: 2bf4144d7dd7d5147901f8d4a9f6719e, type: 3}
  - {fileID: 21300000, guid: 6fcbf74d934d3d84a868fa217c523c03, type: 3}
  - {fileID: 21300000, guid: 0157df4d37868a34cab4e40162d31cd5, type: 3}
  - {fileID: 21300000, guid: acb46c5da30c00847a26600f09100cf2, type: 3}
  - {fileID: 21300000, guid: ecb4a56d61619054a8fe30fb84e522f0, type: 3}
  - {fileID: 21300000, guid: 5e7eed6db574f3b468e60939e242e33f, type: 3}
  - {fileID: 21300000, guid: a83a627d920f65e4c895ead660fcadbf, type: 3}
  - {fileID: 21300000, guid: 669ac08dc697c0446bac8e86cb1717f9, type: 3}
  - {fileID: 21300000, guid: 7906028defb20cb48911b235d48e4fcb, type: 3}
  - {fileID: 21300000, guid: 8834d78d02823c24d974cf6ac0424d19, type: 3}
  - {fileID: 21300000, guid: 7799c1ad8828cee459082d8546d72c40, type: 3}
  - {fileID: 21300000, guid: 9a6243ad384451d4ba7866d882a3fa98, type: 3}
  - {fileID: 21300000, guid: 4c2f0dad33701594a9ccf042fe0198f6, type: 3}
  - {fileID: 21300000, guid: 38911dad59948c749836ac865377405e, type: 3}
  - {fileID: 21300000, guid: cb76d0bde58a8ba409dd20c6d10cda47, type: 3}
  - {fileID: 21300000, guid: 4c09baddaa4141149ae9184f943fac90, type: 3}
  - {fileID: 21300000, guid: 281575fd285b55f498d543b2cdbdf8b1, type: 3}
  - {fileID: 21300000, guid: 275e7afdb1ee97045aa48a0e9dae2893, type: 3}
  - {fileID: 21300000, guid: 87faebfd066ce4145bc6fc0314efee0a, type: 3}
  - {fileID: 21300000, guid: 8fc03efdcf716b14c99cc816c0177df0, type: 3}
  - {fileID: 7485860600792299469, guid: 0dc0a70e672644541b39b5edbbff1a71, type: 3}
  - {fileID: 21300000, guid: 83a2022e4f5463a4ab93f7f03231a4bb, type: 3}
  - {fileID: 21300000, guid: a8b5192ee30c90a4c99cb248baadb79c, type: 3}
  - {fileID: 21300000, guid: 8e74a13e11a232841b69696923b2291b, type: 3}
  - {fileID: -1286724938113611455, guid: b1f3f83ee741f544aa8ce3949713de14, type: 3}
  - {fileID: 21300000, guid: 738d454eb4da9ff4e942313bcb0637f9, type: 3}
  - {fileID: 21300000, guid: 7de98c4e4f2fe864babd62d50a50b3aa, type: 3}
  - {fileID: 21300000, guid: afc7be5ea1d57f140915a43a177f18c0, type: 3}
  - {fileID: 21300000, guid: 2b3fc06e1db145944a2b72def6200c8a, type: 3}
  - {fileID: 21300000, guid: 7aa5816ea29e7ee4293d64c8316265eb, type: 3}
  - {fileID: 21300000, guid: b4ea986e6042886489e841c037f1237d, type: 3}
  - {fileID: 21300000, guid: 41cee96ec41cfae46b58a2e5e6351fbe, type: 3}
  - {fileID: 21300000, guid: 197fe69eca19f544bb22ed5449b3582e, type: 3}
  - {fileID: 21300000, guid: da68099e06e80d444adda30fe9cfb04b, type: 3}
  - {fileID: 21300000, guid: ff704dae0277387408c1aec4935ebcf7, type: 3}
  - {fileID: -1773276270470723932, guid: 9b85d3cef5b138c4088916f51df83b8a, type: 3}
  - {fileID: 21300000, guid: f44328ce831ff8e428a322ad6140fa09, type: 3}
  - {fileID: 21300000, guid: c8439bde4b08eb047ac01c8f869b3811, type: 3}
  - {fileID: 21300000, guid: 8b1c72ee5f99f844bb1b8e39cdcfe9bc, type: 3}
  - {fileID: 21300000, guid: 3f1c05ee6d2caef45906d8c6e0c509d5, type: 3}
  - {fileID: 21300000, guid: f4e294feab4d1d1429239c74b7283fca, type: 3}
  - {fileID: 21300000, guid: 2a52aafe598001145836858bf9de218f, type: 3}
  - {fileID: 21300000, guid: 730a5bfeaa900c54ca95ba7ccd1d93e4, type: 3}
  - {fileID: 21300000, guid: 3d75dcfe513800e4abc96ad943123afc, type: 3}
  - {fileID: 21300000, guid: 63ed9efee64d1c641a22e4c75bca61d2, type: 3}
  - {fileID: 21300000, guid: 9503e00fbaefa2f4b805e2d86b5216aa, type: 3}
  - {fileID: 21300000, guid: d8f2520ffa213b6488e07b47cbcfda95, type: 3}
  - {fileID: 21300000, guid: ffad230ff789fb843ba8aeef0e9b2c67, type: 3}
  - {fileID: 21300000, guid: 3c61670f895b20c45a2f9376c7810144, type: 3}
  - {fileID: 21300000, guid: f220a16f3f496ce4693c7348e62862c2, type: 3}
  - {fileID: 21300000, guid: 0ff11d8fe4b872846bd6e96c40585713, type: 3}
  - {fileID: 21300000, guid: 9089c09f5a09c2442a2bc2ca500bb172, type: 3}
  - {fileID: -897270257240106072, guid: c874599fb4e126745a01670ad274dafd, type: 3}
  - {fileID: 21300000, guid: 7f9dbbbf42274b842ac80964e9f0d565, type: 3}
  - {fileID: 21300000, guid: 78b497cf6ad6c4c44b4e6c6f668705df, type: 3}
  - {fileID: 21300000, guid: ca1ee9cff43fd2c4abda19dfc55a5ee7, type: 3}
  - {fileID: 21300000, guid: 7f43afcf665cfb548951195b855d01db, type: 3}
  - {fileID: 21300000, guid: 6a84d8dfabdcfd8429d299caa1232b91, type: 3}
  - {fileID: 21300000, guid: 249ddcef3f0bd8349ac789bdc5b3b8a9, type: 3}
  m_PackedSpriteNamesToIndex:
  - Blush_Cuvette_3
  - lens_02_4
  - mockup_earrings box 27_0
  - Shadow_Cuvette_Glamour_6
  - Lips_Sticks_Standard_12
  - Grim_Cuvette_4
  - mockup_earrings box 26_0
  - lens_02_3
  - Solvent_Cotton-Pad
  - earrings_23
  - Grim_Cuvette_15
  - bttn_nuclear
  - mockup_earrings box 27
  - Hair icon 1
  - mockup_earrings box 21_0
  - Lips_Cuvette_Standard_12
  - Lips_Cuvette_Standard_1
  - Lips_Cuvette_Glamour_12
  - "\u043E\u0431\u0432_\u0433\u0440\u0438\u043C"
  - "\u043E\u0431\u0432_\u0433\u0440\u0438\u043C_\u043A\u0438\u0441\u0442\u044C"
  - mockup_earrings box 17_0
  - Lips_Cuvette_Standard_9
  - "\u043E\u0431\u0432_\u0441\u0442\u0440\u0430\u0437_\u0433\u0440\u0430\u043D_5"
  - mockup_earrings box 3
  - "\u0442\u043E\u043D\u0430\u043B\u044C\u043D\u0438\u043A"
  - earrings_5
  - mockup_earrings box 8_0
  - Eyelashes_Boxes_0
  - Lips_Cuvette_Standard_5
  - Lips_Sticks_Glamour_2
  - win_white (1)
  - earrings_25
  - earrings_1
  - Eyelashes_Boxes_1
  - Lips_Sticks_Standard_7
  - Shadow_Cuvette_Standard_5
  - btn_next
  - window_2
  - Lips_Sticks_Standard_1
  - Grim_Cuvette_8
  - "\u043A\u0438\u0441\u0442\u044C_\u0433\u0440\u0438\u043C"
  - mockup_earrings box 25_0
  - mockup_earrings box 18
  - mockup_earrings box 11
  - earrings_8
  - Brow_box_5
  - Grim_Cuvette_20
  - "\u043F\u0430\u043B\u0435\u0442_\u0444\u0438\u043E\u043B\u0435\u0442\u043E\u0432\u0430\u044F"
  - earrings_15
  - Grim_Cuvette_7
  - star_05
  - skin4
  - Grim_Cuvette_29
  - Grim_Cuvette_12
  - mockup_earrings box 20
  - Grim_Cuvette_25
  - btn_vip
  - Hair icon 9
  - earrings_14
  - mockup_earrings box 8
  - Grim_Cuvette_17
  - lip gloss
  - "\u043E\u0431\u0432_\u0441\u0442\u0440\u0430\u0437_\u043A\u0430\u043F\u043B\u044F"
  - Lips_Cuvette_Standard_2
  - Hair icon 14
  - mockup_earrings box 1
  - Lips_Cuvette_Glamour_7
  - bttn_plus
  - "\u043E\u0431\u0432_\u043F\u0430\u043B\u0435\u0442\u043A\u0430"
  - mascara_base
  - mockup_earrings box 10_0
  - eyelid-2
  - Eyelashes_Boxes_5
  - earrings_22
  - Lips_Sticks_Glamour_1
  - "\u043F\u0430\u043B\u0435\u0442_\u0436\u0435\u043B\u0442\u0430\u044F"
  - mockup_earrings box 3_0
  - earrings_19
  - Lips_Cuvette_Glamour_3
  - Lips_Cuvette_Glamour_8
  - btn_solvent_2
  - "\u043A\u043E\u0436\u04304"
  - star_03
  - Hair icon 15
  - earrings_17
  - "\u043E\u0431\u0432_\u0442\u043E\u043D\u0430\u043B\u044C\u043D\u0438\u043A"
  - mockup_earrings box 23_0
  - Lips_Cuvette_Standard_4
  - Lips_Sticks_Glamour_13
  - mockup_earrings box 29
  - mockup_earrings box 7_0
  - "\u043F\u0430\u043B\u0435\u0442_\u0447\u0435\u0440\u043D\u0430\u044F"
  - eyelid-4
  - mockup_earrings box 19
  - "\u043F\u0430\u043B\u0435\u0442_\u043A\u0440\u0430\u0441\u043D\u0430\u044F"
  - Grim_Cuvette_33
  - Eyelashes_Boxes_4
  - mockup_earrings box 14_0
  - lens_04_3
  - Blush_Cuvette_1
  - "\u043A\u0438\u0441\u0442\u044C \u0434\u043B\u044F \u0431\u0440\u043E\u0432\u0435\u0439"
  - Lips_Cuvette_Glamour_11
  - Shadow_Cuvette_Glamour_5
  - Grim_Cuvette_3
  - "\u043F\u0430\u043B\u0435\u0442_\u0440\u043E\u0437\u043E\u0432\u0430\u044F"
  - Lips_Cuvette_Glamour_1
  - earrings_7
  - mockup_earrings box 29_0
  - earrings_21
  - mockup_earrings box 18_0
  - eyeball
  - "\u043A\u043E\u0436\u04301"
  - Grim_Cuvette_13
  - Shadow_Cuvette_Standard_10
  - mockup_earrings box 13
  - Shadow_Cuvette_Standard_4
  - Eyelashes_Boxes_3
  - "\u043E\u0431\u0432_\u043F\u043E\u043C\u0430\u0434\u0430"
  - "\u043F\u0430\u043B\u0435\u0442_\u0441\u0438\u043D\u044F\u044F"
  - mockup_earrings box 24
  - "\u043E\u0431\u0432_\u0448\u043A\u0430\u0442\u0443\u043B\u043A\u0430"
  - "\u043A\u0438\u0441\u0442\u044C \u0434\u043B\u044F \u043F\u0443\u0434\u0440\u044B"
  - lens_02_1
  - mockup_earrings box 21
  - "\u043E\u0431\u0432_\u0442\u0435\u043D\u0438_\u0441\u043F\u043E\u043D\u0436"
  - lens_04_2
  - mockup_earrings box 30
  - mockup_earrings box 15_0
  - Lips_Sticks_Glamour_12
  - dot_1_white
  - mockup_earrings box 19_0
  - earrings_18
  - heart
  - "\u043E\u0431\u0432_\u0441\u0442\u0440\u0430\u0437_\u0433\u0440\u0430\u043D_8"
  - Brow_box_3
  - Grim_Cuvette_9
  - bttn_album
  - Eyelashes_Boxes_8
  - Brow_box_2
  - mockup_earrings box 10
  - mockup_earrings box 6_0
  - mockup_earrings box 20_0
  - mockup_earrings box 6
  - Brow_box_4
  - mockup_earrings box 12_0
  - "\u043F\u043E\u0434\u0432\u043E\u0434\u043A\u0430_\u0446\u0432\u0435\u0442"
  - outline
  - Lips_Sticks_Glamour_8
  - Lips_Cuvette_Glamour_5
  - earrings_2
  - Lips_Cuvette_Glamour_10
  - mockup_earrings box 16
  - mockup_earrings box 16_0
  - Grim_Cuvette_23
  - earrings_28
  - bttn_rotate
  - Lips_Cuvette_Glamour_6
  - Shadow_Cuvette_Glamour_2
  - earrings_30
  - earrings_6
  - Solvent_Bottle
  - Hair icon 2
  - lens_04_1
  - Shadow_Cuvette_Glamour_3
  - Lips_Cuvette_Standard_8
  - Grim_Cuvette_22
  - mockup_earrings box 5_0
  - earrings_10
  - Lips_Cuvette_Standard_10
  - mockup_earrings box 24_0
  - Grim_Cuvette_31
  - Lips_Sticks_Standard_11
  - earrings_27
  - star_02
  - Lips_Cuvette_Glamour_4
  - eyelid-3
  - "\u0440\u0443\u043C\u044F\u043D\u0430"
  - "\u043E\u0431\u0432_\u0440\u0435\u0441\u043D\u0438\u0446\u044B_\u0442\u0443\u0448\u044C"
  - lens_03_2
  - Grim_Cuvette_21
  - btn_home
  - Grim_Cuvette_28
  - "\u043E\u0431\u0432_\u043B\u0438\u043D\u0437\u044B"
  - lens_03_3
  - Eyelashes_Boxes_6
  - Shadow_Cuvette_Standard_1
  - "\u043E\u0431\u0432_\u0440\u0443\u043C\u044F\u043D\u0430"
  - Shadow_Cuvette_Glamour_1
  - earrings_3
  - mockup_earrings box 13_0
  - "\u043E\u0431\u0432_\u043A\u043E\u0440\u043E\u0431\u043E\u0447\u043A\u0430_\u0431\u0440\u043E\u0432\u0438"
  - lens_03_1
  - bttn_000
  - skin1
  - Lips_Sticks_Standard_6
  - Grim_Cuvette_14
  - Lips_Cuvette_Standard_3
  - mockup_earrings box 22
  - Grim_Cuvette_34
  - btn_home_1
  - Grim_Cuvette_2
  - "\u043A\u043E\u0436\u04303"
  - "\u043F\u0430\u043B\u0435\u0442_\u043E\u0440\u0430\u043D\u0436\u0435\u0432\u0430\u044F"
  - Hair icon 6
  - mockup_earrings box 4
  - Lips_Sticks_Glamour_7
  - Lips_Sticks_Standard_10
  - lens_01_2
  - Grim_Cuvette_6
  - Shadow_Cuvette_Standard_3
  - earrings_16
  - Lips_Cuvette_Standard_13
  - Grim_Cuvette_26
  - Particle
  - earrings_12
  - Shadow_Cuvette_Standard_7
  - mockup_earrings box 11_0
  - Grim_Cuvette_18
  - earrings_26
  - skin2
  - Lips_Sticks_Glamour_3
  - Grim_Cuvette_16
  - mockup_earrings box 7
  - bttn_album_3
  - Hair icon 5
  - mockup_earrings box 22_0
  - Hair icon 13
  - "\u043F\u0430\u043B\u0435\u0442_\u0431\u043E\u0440\u0434\u043E\u0432\u0430\u044F"
  - Grim_Cuvette_11
  - Hair icon 11
  - Lips_Cuvette_Glamour_9
  - bttn_00
  - Shadow_Cuvette_Standard_9
  - mockup_earrings box 4_0
  - bttn_cross_2
  - mockup_earrings box 12
  - eyelid-1
  - bttn_trash
  - mockup_earrings box 2_0
  - mockup_earrings box 5
  - Lips_Sticks_Standard_3
  - bttn_lock_1_0
  - bttn_cross_1
  - "\u043E\u0431\u0432_\u0440\u0430\u0441\u0447\u0435\u0441\u043A\u0430"
  - earrings_20
  - "\u043A\u043E\u0436\u04302"
  - Hair icon 12
  - Blush_Cuvette_2
  - mockup_earrings box 15
  - lens_02_2
  - skin3
  - bttn_minus
  - mockup_earrings box 26
  - Grim_Cuvette_19
  - mockup_earrings box 28
  - btn_home_2
  - Lips_Sticks_Standard_8
  - "\u043A\u0438\u0441\u0442\u044C \u0431\u0440\u043E\u0432\u0438"
  - Grim_Cuvette_24
  - dot_1
  - Lips_Sticks_Standard_5
  - "\u043E\u0431\u0432_\u0441\u0442\u0440\u0430\u0437_\u043A\u0440\u0443\u0433"
  - mockup_earrings box 23
  - Lips_Sticks_Glamour_4
  - "\u0441\u043F\u043E\u043D\u0436 \u0442\u0435\u043D\u04381"
  - Lips_Sticks_Standard_13
  - Lips_Sticks_Gloss
  - Hair icon 4
  - lens_01_1
  - Brow_box_1
  - Lips_Cuvette_Glamour_13
  - Hair icon 3
  - mannequin_tool
  - btn_photo
  - Lips_Cuvette_Standard_6
  - Hair icon 8
  - "\u043E\u0431\u0432_\u0431\u0440\u043E\u0432\u0438"
  - "\u043F\u0430\u043B\u0435\u0442_\u0437\u0435\u043B\u0435\u043D\u0430\u044F"
  - Shadow_Cuvette_Glamour_4
  - Lips_Cuvette_Standard_11
  - Lips_Sticks_Standard_2
  - Lips_Sticks_Glamour_11
  - lens_01_3
  - Hair icon 10
  - earrings_29
  - earrings_9
  - Lips_Sticks_Standard_4
  - Lips_Sticks_Glamour_10
  - earrings_24
  - Grim_Cuvette_27
  - Lips_Sticks_Glamour_9
  - bttn_layers
  - mockup_earrings box 30_0
  - Lips_Cuvette_Glamour_2
  - Grim_Cuvette_5
  - mockup_earrings box 2
  - mockup_earrings box 9_0
  - earrings_13
  - earrings_11
  - Shadow_Cuvette_Standard_2
  - Hair icon 7
  - Grim_Cuvette_10
  - mockup_earrings box 17
  - mannequin_tool_outline
  - window_3 (1)
  - star_01
  - Grim_Cuvette_32
  - mockup_earrings box 1_0
  - mockup_earrings box 25
  - "\u043E\u0431\u0432_\u0441\u0442\u0440\u0430\u0437_\u043E\u0432\u0430\u043B"
  - "\u043E\u0431\u0432_\u0440\u0430\u0441\u0442\u0432\u043E\u0440\u0438\u0442\u0435\u043B\u044C"
  - bttn_apply
  - Lips_Cuvette_Standard_7
  - Eyelashes_Boxes_7
  - "\u043E\u0431\u0432_\u043F\u043E\u0434\u0443\u0448\u043A\u0430"
  - "\u043E\u0431\u0432_\u0431\u043B\u0435\u0441\u043A \u0434\u043B\u044F \u0433\u0443\u0431"
  - Eyelashes_Boxes_2
  - mascara_color
  - Grim_Cuvette_30
  - mockup_earrings box 9
  - Lips_Sticks_Standard_9
  - star_04
  - Shadow_Cuvette_Standard_6
  - mockup_earrings box 14
  - mockup_earrings box 28_0
  - Lips_Sticks_Glamour_6
  - earrings_4
  - Shadow_Cuvette_Standard_8
  - Lips_Sticks_Glamour_5
  - Grim_Cuvette_1
  - "\u0441\u043F\u043E\u043D\u0436 \u0442\u0435\u043D\u04382"
  m_RenderDataMap: {}
  m_Tag: Main
  m_IsVariant: 0
